<svg xmlns="http://www.w3.org/2000/svg" width="55" height="39" viewBox="0 0 55 39">
    <g fill="#F2C94C" fill-rule="nonzero">
        <path d="M48.81 0H5.747A5.754 5.754 0 0 0 0 5.748v27.487a5.754 5.754 0 0 0 5.748 5.748h43.061a5.754 5.754 0 0 0 5.748-5.748V5.748A5.754 5.754 0 0 0 48.81 0zM5.747 1.916h43.061a3.836 3.836 0 0 1 3.832 3.832v.622H1.916v-.622a3.836 3.836 0 0 1 3.832-3.832zm43.061 35.151H5.748a3.836 3.836 0 0 1-3.832-3.832V13.732h50.725v19.503a3.836 3.836 0 0 1-3.832 3.832z"/>
        <path d="M5.367 20.136h32.897v2.874H5.367zM41.771 20.136h7.032v2.874h-7.032z"/>
    </g>
</svg>
