[
  {
    "name": "Tomatoes",
    "sku": "4356798E03",
    "img": "/assets/images/tomato.png",
    "isDecimal": true,
    "price": 6.2,
    "qty": 1,
    "measure" : "kg"
  },
  {
    "name": "Magnum White Ice Cream 4 X110ml",
    "sku": "4356798E01",
    "img": "/assets/images/magnum.png",
    "isDecimal": false,
    "price": 6.2,
    "qty": 1,
    "measure" : ""
  },
  {
    "name": "Corona Extra 12X330ml",
    "sku": "4356798E02",
    "img": "/assets/images/corona.png",
    "isDecimal": true,
    "price": 6.2,
    "qty": 1,
    "measure" : "kg"
  },
  {
    "name": "Andrex Toilet Tissue 24 Roll Puppies On A Roll",
    "sku": "4356798E04",
    "img": "/assets/images/andrex.png",
    "isDecimal": true,
    "price": 6.2,
    "qty": 1,
    "measure" : "kg"
  },
  {
    "name": "Ariel Washing Powder 40 Washes 2.6Kg",
    "sku": "4356798E05",
    "img": "/assets/images/ariel.png",
    "isDecimal": true,
    "price": 6.2,
    "qty": 1,
    "measure" : "kg"
  }
]